%YAML 1.1
%TAG !u! tag:unity3d.com,2011:
--- !u!21 &2100000
Material:
  serializedVersion: 6
  m_ObjectHideFlags: 0
  m_PrefabParentObject: {fileID: 0}
  m_PrefabInternal: {fileID: 0}
  m_Name: New Material
  m_Shader: {fileID: 4800000, guid: 874ceab4425f64bccb1d14032f4452b1, type: 3}
  m_ShaderKeywords: 
  m_LightmapFlags: 4
  m_EnableInstancingVariants: 0
  m_CustomRenderQueue: -1
  stringTagMap: {}
  disabledShaderPasses: []
  m_SavedProperties:
    serializedVersion: 3
    m_TexEnvs:
    - _AOTex:
        m_Texture: {fileID: 2800000, guid: 483fbc8a36dee604fa3b30016638e7bd, type: 3}
        m_Scale: {x: 1, y: 1}
        m_Offset: {x: 0, y: 0}
    - _BumpMap:
        m_Texture: {fileID: 0}
        m_Scale: {x: 1, y: 1}
        m_Offset: {x: 0, y: 0}
    - _BurningTex:
        m_Texture: {fileID: 2800000, guid: 983c1417750087f4387d6580befe78e6, type: 3}
        m_Scale: {x: 1, y: 1}
        m_Offset: {x: 0, y: 0}
    - _Conversion:
        m_Texture: {fileID: 2800000, guid: 983c1417750087f4387d6580befe78e6, type: 3}
        m_Scale: {x: 1, y: 1}
        m_Offset: {x: 0, y: 0}
    - _DetailAlbedoMap:
        m_Texture: {fileID: 0}
        m_Scale: {x: 1, y: 1}
        m_Offset: {x: 0, y: 0}
    - _DetailMask:
        m_Texture: {fileID: 0}
        m_Scale: {x: 1, y: 1}
        m_Offset: {x: 0, y: 0}
    - _DetailNormalMap:
        m_Texture: {fileID: 0}
        m_Scale: {x: 1, y: 1}
        m_Offset: {x: 0, y: 0}
    - _DiffTex:
        m_Texture: {fileID: 0}
        m_Scale: {x: 1, y: 1}
        m_Offset: {x: 0, y: 0}
    - _Emission:
        m_Texture: {fileID: 0}
        m_Scale: {x: 1, y: 1}
        m_Offset: {x: 0, y: 0}
    - _EmissionMap:
        m_Texture: {fileID: 0}
        m_Scale: {x: 1, y: 1}
        m_Offset: {x: 0, y: 0}
    - _ILMTex:
        m_Texture: {fileID: 2800000, guid: 00e9f5bcec5889e429f5467ab6ab1d42, type: 3}
        m_Scale: {x: 1, y: 1}
        m_Offset: {x: 0, y: 0}
    - _IntersectionTex:
        m_Texture: {fileID: 2800000, guid: 00e9f5bcec5889e429f5467ab6ab1d42, type: 3}
        m_Scale: {x: 1, y: 1}
        m_Offset: {x: 0, y: 0}
    - _LightTex:
        m_Texture: {fileID: 2800000, guid: e08c6b32fe70de649bfe060054d27243, type: 3}
        m_Scale: {x: 1, y: 1}
        m_Offset: {x: 0, y: 0}
    - _MainAlpha:
        m_Texture: {fileID: 2800000, guid: 95ef4804fe0be4c999ddaa383536cde8, type: 3}
        m_Scale: {x: 1, y: 1}
        m_Offset: {x: 0, y: 0}
    - _MainTex:
        m_Texture: {fileID: 2800000, guid: e08c6b32fe70de649bfe060054d27243, type: 3}
        m_Scale: {x: 1, y: 1}
        m_Offset: {x: 0, y: 0}
    - _Mask:
        m_Texture: {fileID: 0}
        m_Scale: {x: 1, y: 1}
        m_Offset: {x: 0, y: 0}
    - _MetallicGlossMap:
        m_Texture: {fileID: 0}
        m_Scale: {x: 1, y: 1}
        m_Offset: {x: 0, y: 0}
    - _NormalMap:
        m_Texture: {fileID: 0}
        m_Scale: {x: 1, y: 1}
        m_Offset: {x: 0, y: 0}
    - _OcclusionMap:
        m_Texture: {fileID: 0}
        m_Scale: {x: 1, y: 1}
        m_Offset: {x: 0, y: 0}
    - _ParallaxMap:
        m_Texture: {fileID: 0}
        m_Scale: {x: 1, y: 1}
        m_Offset: {x: 0, y: 0}
    - _RampTex:
        m_Texture: {fileID: 0}
        m_Scale: {x: 1, y: 1}
        m_Offset: {x: 0, y: 0}
    - _SSSTex:
        m_Texture: {fileID: 2800000, guid: 00e9f5bcec5889e429f5467ab6ab1d42, type: 3}
        m_Scale: {x: 1, y: 1}
        m_Offset: {x: 0, y: 0}
    - _SpecGlossMap:
        m_Texture: {fileID: 0}
        m_Scale: {x: 1, y: 1}
        m_Offset: {x: 0, y: 0}
    - _SpecMap:
        m_Texture: {fileID: 0}
        m_Scale: {x: 1, y: 1}
        m_Offset: {x: 0, y: 0}
    - _SpecTex:
        m_Texture: {fileID: 2800000, guid: d95e09be736899f4eb68bc61e95a0b18, type: 3}
        m_Scale: {x: 1, y: 1}
        m_Offset: {x: 0, y: 0}
    - _ToonLut:
        m_Texture: {fileID: 2800000, guid: 20a395b21c446574f8bb7271f68690be, type: 3}
        m_Scale: {x: 1, y: 1}
        m_Offset: {x: 0, y: 0}
    m_Floats:
    - _AOMultiplier: 1.02
    - _AOOffset: 0.85
    - _BumpScale: 1
    - _Burn: 0.509
    - _BurnDamper: 0.01
    - _CellColumnAmount: 1
    - _CellRowAmount: 1
    - _ConvertDistance: 0.1
    - _ConvertEmission: 0.334
    - _Cut: 0
    - _CutDamper: 0.0558
    - _Cutoff: 0.5
    - _CutoutThresh: 0.68
    - _DarkenInnerLineColor: 1
    - _DetailNormalMapScale: 1
    - _DstBlend: 0
    - _EdgeWidth: 0.823
    - _EmissiveIntensity: 1
    - _EmitPow: 1
    - _GlossMapScale: 1
    - _Glossiness: 0.322
    - _GlossyReflections: 1
    - _IntersectionDamper: 0.114
    - _IntersectionMax: 0.27
    - _LightThreshold: 0.54
    - _Metallic: 0.139
    - _Mode: 0
    - _OcclusionStrength: 1
    - _Outline: 0.045
    - _OutlineDist: 0.45
    - _Parallax: 0.02
    - _PixelNumberX: 2
    - _PixelNumberY: 2
    - _RimBoost: 2
    - _RimExp: 4
    - _RimPower: 1
    - _Scale: 1
    - _ScaleX: 1
    - _ScaleY: 1
    - _ShadowContrast: 12.16
    - _Shininess: 0.52
    - _SmoothnessTextureChannel: 0
    - _SpecBoost: 0.3
    - _SpecExp: 20
    - _SpecMix: 0.88
    - _SpecularHighlights: 1
    - _Speed: 12
    - _SrcBlend: 1
    - _StencilMask: 0
    - _UVSec: 0
    - _Val: -0.33
    - _ZWrite: 1
    - _isToggled: 0
    m_Colors:
    - _BoxRotation: {r: 2.2, g: 1.4, b: 0, a: 1}
    - _BoxSize: {r: 0.9, g: 0.6, b: 0.69, a: -0.02}
    - _Color: {r: 0.44117647, g: 0.44117647, b: 0.44117647, a: 1}
    - _Color1: {r: 1, g: 0.53676474, b: 0.6038539, a: 0.284}
    - _Color2: {r: 0.9852941, g: 0.0072448165, b: 0.0072448165, a: 0.484}
    - _CrossColor: {r: 1, g: 0, b: 0, a: 1}
    - _Diffusecolor: {r: 1, g: 1, b: 1, a: 1}
    - _Emission: {r: 0, g: 0, b: 0, a: 0}
    - _EmissionColor: {r: 0, g: 0, b: 0, a: 0}
    - _IntersectionColor: {r: 1, g: 0, b: 0, a: 1}
    - _LightDirection: {r: 0, g: 0, b: 1, a: 1}
    - _MainColor: {r: 1, g: 1, b: 1, a: 0.409}
    - _Origin: {r: 0.47, g: 0.7, b: 0, a: 0}
    - _OutlineColor: {r: 1, g: 0, b: 0, a: 1}
    - _Plane1Normal: {r: 0, g: 1, b: 0, a: 0}
    - _Plane1Position: {r: 0.82, g: 1.27, b: 0, a: 1}
    - _Plane2Normal: {r: 1, g: 0, b: 0, a: 0}
    - _Plane2Position: {r: 1.29, g: 0, b: 0.51, a: 1}
    - _Plane3Normal: {r: 0, g: 0, b: -1, a: 0}
    - _Plane3Position: {r: 3.07, g: 0, b: 0, a: 1}
    - _PlaneNormal: {r: -0.46, g: 1.2, b: 0.45, a: 0.65}
    - _PlanePosition: {r: 0.38, g: 1.6, b: 0, a: 1}
    - _RimColor: {r: 0.53676474, g: 1, b: 0.5782961, a: 1}
    - _SpecColor: {r: 1, g: 0.7205882, b: 0.7205882, a: 1}
    - _TintColor: {r: 0.5, g: 0.5, b: 0.5, a: 0.5}
